"index" "index_chain" "chain_name" "nt_name" "nt_code" "is_modified" "nt_id"
"1" 1 1 "A" "C5" "c" TRUE "A.C5/1"
"2" 2 2 "A" "A" "A" NA "A.A2"
"3" 3 3 "A" "G" "G" NA "A.G3"
"4" 4 4 "A" "A" "A" NA "A.A4"
"5" 5 5 "A" "A" "A" NA "A.A5"
"6" 6 6 "A" "C" "C" NA "A.C6"
"7" 7 7 "A" "C" "C" NA "A.C7"
"8" 8 8 "A" "A" "A" NA "A.A8"
"9" 9 9 "A" "U" "U" NA "A.U9"
"10" 10 10 "A" "C" "C" NA "A.C10"
"11" 11 11 "A" "C" "C" NA "A.C11"
"12" 12 12 "A" "U" "U" NA "A.U12"
"13" 13 13 "A" "G" "G" NA "A.G13"
"14" 14 14 "A" "U" "U" NA "A.U14"
"15" 15 15 "A" "C" "C" NA "A.C15"
"16" 16 16 "A" "U" "U" NA "A.U16"
"17" 17 17 "A" "G" "G" NA "A.G17"
"18" 18 18 "A" "A" "A" NA "A.A18"
"19" 19 19 "A" "C" "C" NA "A.C19"
"20" 20 20 "A" "A" "A" NA "A.A20"
"21" 21 21 "A" "G" "G" NA "A.G21"
"22" 22 22 "A" "G" "G" NA "A.G22"
"23" 23 23 "A" "G" "G" NA "A.G23"
"24" 24 24 "A" "U" "U" NA "A.U24"
"25" 25 25 "A" "C" "C" NA "A.C25"
"26" 26 26 "A" "U" "U" NA "A.U26"
"27" 27 27 "A" "G" "G" NA "A.G27"
"28" 28 28 "A" "A" "A" NA "A.A28"
"29" 29 29 "A" "A" "A" NA "A.A29"
"30" 30 30 "A" "U" "U" NA "A.U30"
"31" 31 31 "A" "C" "C" NA "A.C31"
"32" 32 32 "A" "C" "C" NA "A.C32"
"33" 33 33 "A" "G" "G" NA "A.G33"
"34" 34 34 "A" "A" "A" NA "A.A34"
"35" 35 35 "A" "U" "U" NA "A.U35"
"36" 36 36 "A" "G" "G" NA "A.G36"
"37" 37 37 "A" "G" "G" NA "A.G37"
"38" 38 38 "A" "U" "U" NA "A.U38"
"39" 39 39 "A" "U" "U" NA "A.U39"
"40" 40 40 "A" "G" "G" NA "A.G40"
"41" 41 41 "A" "G" "G" NA "A.G41"
"42" 42 42 "A" "A" "A" NA "A.A42"
"43" 43 43 "A" "U" "U" NA "A.U43"
"44" 44 44 "A" "U" "U" NA "A.U44"
"45" 45 45 "A" "C" "C" NA "A.C45"
"46" 46 46 "A" "U" "U" NA "A.U46"
"47" 47 47 "A" "A" "A" NA "A.A47"
"48" 48 48 "A" "A" "A" NA "A.A48"
"49" 49 49 "A" "A" "A" NA "A.A49"
"50" 50 50 "A" "G" "G" NA "A.G50"
"51" 51 51 "A" "A" "A" NA "A.A51"
"52" 52 52 "A" "C" "C" NA "A.C52"
"53" 53 53 "A" "A" "A" NA "A.A53"
"54" 54 54 "A" "G" "G" NA "A.G54"
"55" 55 55 "A" "A" "A" NA "A.A55"
"56" 56 56 "A" "A" "A" NA "A.A56"
"57" 57 57 "A" "C" "C" NA "A.C57"
"58" 58 58 "A" "C" "C" NA "A.C58"
"59" 59 59 "A" "A" "A" NA "A.A59"
"60" 60 60 "A" "U" "U" NA "A.U60"
"61" 61 61 "A" "C" "C" NA "A.C61"
"62" 62 62 "A" "C" "C" NA "A.C62"
"63" 63 63 "A" "U" "U" NA "A.U63"
"64" 64 64 "A" "G" "G" NA "A.G64"
"65" 65 65 "A" "U" "U" NA "A.U65"
"66" 66 66 "A" "C" "C" NA "A.C66"
"67" 67 67 "A" "U" "U" NA "A.U67"
"68" 68 68 "A" "G" "G" NA "A.G68"
"69" 69 69 "A" "A" "A" NA "A.A69"
"70" 70 70 "A" "C" "C" NA "A.C70"
"71" 71 71 "A" "A" "A" NA "A.A71"
"72" 72 72 "A" "G" "G" NA "A.G72"
"73" 73 73 "A" "A" "A" NA "A.A73"
"74" 74 74 "A" "C" "C" NA "A.C74"
"75" 75 75 "A" "C" "C" NA "A.C75"
"76" 76 76 "A" "C" "C" NA "A.C76"
"77" 77 77 "A" "U" "U" NA "A.U77"
"78" 78 78 "A" "G" "G" NA "A.G78"
"79" 79 79 "A" "A" "A" NA "A.A79"
"80" 80 80 "A" "A" "A" NA "A.A80"
"81" 81 81 "A" "U" "U" NA "A.U81"
"82" 82 82 "A" "C" "C" NA "A.C82"
"83" 83 83 "A" "C" "C" NA "A.C83"
"84" 84 84 "A" "G" "G" NA "A.G84"
"85" 85 85 "A" "A" "A" NA "A.A85"
"86" 86 86 "A" "U" "U" NA "A.U86"
"87" 87 87 "A" "G" "G" NA "A.G87"
"88" 88 88 "A" "G" "G" NA "A.G88"
"89" 89 89 "A" "U" "U" NA "A.U89"
"90" 90 90 "A" "U" "U" NA "A.U90"
"91" 91 91 "A" "G" "G" NA "A.G91"
"92" 92 92 "A" "G" "G" NA "A.G92"
"93" 93 93 "A" "A" "A" NA "A.A93"
"94" 94 94 "A" "U" "U" NA "A.U94"
"95" 95 95 "A" "U" "U" NA "A.U95"
"96" 96 96 "A" "C" "C" NA "A.C96"
"97" 97 97 "A" "U" "U" NA "A.U97"
"98" 98 98 "A" "A" "A" NA "A.A98"
"99" 99 99 "A" "A" "A" NA "A.A99"
"100" 100 100 "A" "A" "A" NA "A.A100"
"101" 101 101 "A" "G" "G" NA "A.G101"
"102" 102 102 "A" "A3" "a" TRUE "A.A3/102"
"103" 103 1 "B" "G5" "g" TRUE "B.G5/1"
"104" 104 2 "B" "G" "G" NA "B.G2"
"105" 105 3 "B" "G" "G" NA "B.G3"
"106" 106 4 "B" "A" "A" NA "B.A4"
"107" 107 5 "B" "A" "A" NA "B.A5"
"108" 108 6 "B" "U" "U" NA "B.U6"
"109" 109 7 "B" "C" "C" NA "B.C7"
"110" 110 8 "B" "C" "C" NA "B.C8"
"111" 111 9 "B" "G" "G" NA "B.G9"
"112" 112 10 "B" "A" "A" NA "B.A10"
"113" 113 11 "B" "U" "U" NA "B.U11"
"114" 114 12 "B" "G" "G" NA "B.G12"
"115" 115 13 "B" "G" "G" NA "B.G13"
"116" 116 14 "B" "U" "U" NA "B.U14"
"117" 117 15 "B" "U" "U" NA "B.U15"
"118" 118 16 "B" "G" "G" NA "B.G16"
"119" 119 17 "B" "G" "G" NA "B.G17"
"120" 120 18 "B" "A" "A" NA "B.A18"
"121" 121 19 "B" "U" "U" NA "B.U19"
"122" 122 20 "B" "U" "U" NA "B.U20"
"123" 123 21 "B" "C" "C" NA "B.C21"
"124" 124 22 "B" "C" "C" NA "B.C22"
"125" 125 23 "B" "C" "C" NA "B.C23"
"126" 126 24 "B" "G" "G" NA "B.G24"
"127" 127 25 "B" "U" "U" NA "B.U25"
"128" 128 26 "B" "C" "C" NA "B.C26"
"129" 129 27 "B" "A" "A" NA "B.A27"
"130" 130 28 "B" "C" "C" NA "B.C28"
"131" 131 29 "B" "A" "A" NA "B.A29"
"132" 132 30 "B" "G" "G" NA "B.G30"
"133" 133 31 "B" "A" "A" NA "B.A31"
"134" 134 32 "B" "A" "A" NA "B.A32"
"135" 135 33 "B" "C" "C" NA "B.C33"
"136" 136 34 "B" "C" "C" NA "B.C34"
"137" 137 35 "B" "A" "A" NA "B.A35"
"138" 138 36 "B" "U" "U" NA "B.U36"
"139" 139 37 "B" "C" "C" NA "B.C37"
"140" 140 38 "B" "C" "C" NA "B.C38"
"141" 141 39 "B" "U" "U" NA "B.U39"
"142" 142 40 "B" "G" "G" NA "B.G40"
"143" 143 41 "B" "U" "U" NA "B.U41"
"144" 144 42 "B" "G" "G" NA "B.G42"
"145" 145 43 "B" "A" "A" NA "B.A43"
"146" 146 44 "B" "C3" "c" TRUE "B.C3/44"
"147" 147 1 "C" "C5" "c" TRUE "C.C5/1"
"148" 148 2 "C" "A" "A" NA "C.A2"
"149" 149 3 "C" "G" "G" NA "C.G3"
"150" 150 4 "C" "A" "A" NA "C.A4"
"151" 151 5 "C" "A" "A" NA "C.A5"
"152" 152 6 "C" "C" "C" NA "C.C6"
"153" 153 7 "C" "C" "C" NA "C.C7"
"154" 154 8 "C" "A" "A" NA "C.A8"
"155" 155 9 "C" "U" "U" NA "C.U9"
"156" 156 10 "C" "C" "C" NA "C.C10"
"157" 157 11 "C" "C" "C" NA "C.C11"
"158" 158 12 "C" "U" "U" NA "C.U12"
"159" 159 13 "C" "G" "G" NA "C.G13"
"160" 160 14 "C" "U" "U" NA "C.U14"
"161" 161 15 "C" "C" "C" NA "C.C15"
"162" 162 16 "C" "U" "U" NA "C.U16"
"163" 163 17 "C" "G" "G" NA "C.G17"
"164" 164 18 "C" "A" "A" NA "C.A18"
"165" 165 19 "C" "C" "C" NA "C.C19"
"166" 166 20 "C" "A" "A" NA "C.A20"
"167" 167 21 "C" "G" "G" NA "C.G21"
"168" 168 22 "C" "G" "G" NA "C.G22"
"169" 169 23 "C" "G" "G" NA "C.G23"
"170" 170 24 "C" "U" "U" NA "C.U24"
"171" 171 25 "C" "C" "C" NA "C.C25"
"172" 172 26 "C" "U" "U" NA "C.U26"
"173" 173 27 "C" "G" "G" NA "C.G27"
"174" 174 28 "C" "A" "A" NA "C.A28"
"175" 175 29 "C" "A" "A" NA "C.A29"
"176" 176 30 "C" "U" "U" NA "C.U30"
"177" 177 31 "C" "C" "C" NA "C.C31"
"178" 178 32 "C" "C" "C" NA "C.C32"
"179" 179 33 "C" "G" "G" NA "C.G33"
"180" 180 34 "C" "A" "A" NA "C.A34"
"181" 181 35 "C" "U" "U" NA "C.U35"
"182" 182 36 "C" "G" "G" NA "C.G36"
"183" 183 37 "C" "G" "G" NA "C.G37"
"184" 184 38 "C" "U" "U" NA "C.U38"
"185" 185 39 "C" "U" "U" NA "C.U39"
"186" 186 40 "C" "G" "G" NA "C.G40"
"187" 187 41 "C" "G" "G" NA "C.G41"
"188" 188 42 "C" "A" "A" NA "C.A42"
"189" 189 43 "C" "U" "U" NA "C.U43"
"190" 190 44 "C" "U" "U" NA "C.U44"
"191" 191 45 "C" "C" "C" NA "C.C45"
"192" 192 46 "C" "U" "U" NA "C.U46"
"193" 193 47 "C" "A" "A" NA "C.A47"
"194" 194 48 "C" "A" "A" NA "C.A48"
"195" 195 49 "C" "A" "A" NA "C.A49"
"196" 196 50 "C" "G" "G" NA "C.G50"
"197" 197 51 "C" "A" "A" NA "C.A51"
"198" 198 52 "C" "C" "C" NA "C.C52"
"199" 199 53 "C" "A" "A" NA "C.A53"
"200" 200 54 "C" "G" "G" NA "C.G54"
"201" 201 55 "C" "A" "A" NA "C.A55"
"202" 202 56 "C" "A" "A" NA "C.A56"
"203" 203 57 "C" "C" "C" NA "C.C57"
"204" 204 58 "C" "C" "C" NA "C.C58"
"205" 205 59 "C" "A" "A" NA "C.A59"
"206" 206 60 "C" "U" "U" NA "C.U60"
"207" 207 61 "C" "C" "C" NA "C.C61"
"208" 208 62 "C" "C" "C" NA "C.C62"
"209" 209 63 "C" "U" "U" NA "C.U63"
"210" 210 64 "C" "G" "G" NA "C.G64"
"211" 211 65 "C" "U" "U" NA "C.U65"
"212" 212 66 "C" "C" "C" NA "C.C66"
"213" 213 67 "C" "U" "U" NA "C.U67"
"214" 214 68 "C" "G" "G" NA "C.G68"
"215" 215 69 "C" "A" "A" NA "C.A69"
"216" 216 70 "C" "C" "C" NA "C.C70"
"217" 217 71 "C" "A" "A" NA "C.A71"
"218" 218 72 "C" "G" "G" NA "C.G72"
"219" 219 73 "C" "A" "A" NA "C.A73"
"220" 220 74 "C" "C" "C" NA "C.C74"
"221" 221 75 "C" "C" "C" NA "C.C75"
"222" 222 76 "C" "C" "C" NA "C.C76"
"223" 223 77 "C" "U" "U" NA "C.U77"
"224" 224 78 "C" "G" "G" NA "C.G78"
"225" 225 79 "C" "A" "A" NA "C.A79"
"226" 226 80 "C" "A" "A" NA "C.A80"
"227" 227 81 "C" "U" "U" NA "C.U81"
"228" 228 82 "C" "C" "C" NA "C.C82"
"229" 229 83 "C" "C" "C" NA "C.C83"
"230" 230 84 "C" "G" "G" NA "C.G84"
"231" 231 85 "C" "A" "A" NA "C.A85"
"232" 232 86 "C" "U" "U" NA "C.U86"
"233" 233 87 "C" "G" "G" NA "C.G87"
"234" 234 88 "C" "G" "G" NA "C.G88"
"235" 235 89 "C" "U" "U" NA "C.U89"
"236" 236 90 "C" "U" "U" NA "C.U90"
"237" 237 91 "C" "G" "G" NA "C.G91"
"238" 238 92 "C" "G" "G" NA "C.G92"
"239" 239 93 "C" "A" "A" NA "C.A93"
"240" 240 94 "C" "U" "U" NA "C.U94"
"241" 241 95 "C" "U" "U" NA "C.U95"
"242" 242 96 "C" "C" "C" NA "C.C96"
"243" 243 97 "C" "U" "U" NA "C.U97"
"244" 244 98 "C" "A" "A" NA "C.A98"
"245" 245 99 "C" "A" "A" NA "C.A99"
"246" 246 100 "C" "A" "A" NA "C.A100"
"247" 247 101 "C" "G" "G" NA "C.G101"
"248" 248 102 "C" "A3" "a" TRUE "C.A3/102"
"249" 249 1 "D" "G5" "g" TRUE "D.G5/1"
"250" 250 2 "D" "G" "G" NA "D.G2"
"251" 251 3 "D" "G" "G" NA "D.G3"
"252" 252 4 "D" "A" "A" NA "D.A4"
"253" 253 5 "D" "A" "A" NA "D.A5"
"254" 254 6 "D" "U" "U" NA "D.U6"
"255" 255 7 "D" "C" "C" NA "D.C7"
"256" 256 8 "D" "C" "C" NA "D.C8"
"257" 257 9 "D" "G" "G" NA "D.G9"
"258" 258 10 "D" "A" "A" NA "D.A10"
"259" 259 11 "D" "U" "U" NA "D.U11"
"260" 260 12 "D" "G" "G" NA "D.G12"
"261" 261 13 "D" "G" "G" NA "D.G13"
"262" 262 14 "D" "U" "U" NA "D.U14"
"263" 263 15 "D" "U" "U" NA "D.U15"
"264" 264 16 "D" "G" "G" NA "D.G16"
"265" 265 17 "D" "G" "G" NA "D.G17"
"266" 266 18 "D" "A" "A" NA "D.A18"
"267" 267 19 "D" "U" "U" NA "D.U19"
"268" 268 20 "D" "U" "U" NA "D.U20"
"269" 269 21 "D" "C" "C" NA "D.C21"
"270" 270 22 "D" "C" "C" NA "D.C22"
"271" 271 23 "D" "C" "C" NA "D.C23"
"272" 272 24 "D" "G" "G" NA "D.G24"
"273" 273 25 "D" "U" "U" NA "D.U25"
"274" 274 26 "D" "C" "C" NA "D.C26"
"275" 275 27 "D" "A" "A" NA "D.A27"
"276" 276 28 "D" "C" "C" NA "D.C28"
"277" 277 29 "D" "A" "A" NA "D.A29"
"278" 278 30 "D" "G" "G" NA "D.G30"
"279" 279 31 "D" "A" "A" NA "D.A31"
"280" 280 32 "D" "A" "A" NA "D.A32"
"281" 281 33 "D" "C" "C" NA "D.C33"
"282" 282 34 "D" "C" "C" NA "D.C34"
"283" 283 35 "D" "A" "A" NA "D.A35"
"284" 284 36 "D" "U" "U" NA "D.U36"
"285" 285 37 "D" "C" "C" NA "D.C37"
"286" 286 38 "D" "C" "C" NA "D.C38"
"287" 287 39 "D" "U" "U" NA "D.U39"
"288" 288 40 "D" "G" "G" NA "D.G40"
"289" 289 41 "D" "U" "U" NA "D.U41"
"290" 290 42 "D" "G" "G" NA "D.G42"
"291" 291 43 "D" "A" "A" NA "D.A43"
"292" 292 44 "D" "C3" "c" TRUE "D.C3/44"
"293" 293 1 "E" "C5" "c" TRUE "E.C5/1"
"294" 294 2 "E" "A" "A" NA "E.A2"
"295" 295 3 "E" "G" "G" NA "E.G3"
"296" 296 4 "E" "A" "A" NA "E.A4"
"297" 297 5 "E" "A" "A" NA "E.A5"
"298" 298 6 "E" "C" "C" NA "E.C6"
"299" 299 7 "E" "C" "C" NA "E.C7"
"300" 300 8 "E" "A" "A" NA "E.A8"
"301" 301 9 "E" "U" "U" NA "E.U9"
"302" 302 10 "E" "C" "C" NA "E.C10"
"303" 303 11 "E" "C" "C" NA "E.C11"
"304" 304 12 "E" "U" "U" NA "E.U12"
"305" 305 13 "E" "G" "G" NA "E.G13"
"306" 306 14 "E" "U" "U" NA "E.U14"
"307" 307 15 "E" "C" "C" NA "E.C15"
"308" 308 16 "E" "U" "U" NA "E.U16"
"309" 309 17 "E" "G" "G" NA "E.G17"
"310" 310 18 "E" "A" "A" NA "E.A18"
"311" 311 19 "E" "C" "C" NA "E.C19"
"312" 312 20 "E" "A" "A" NA "E.A20"
"313" 313 21 "E" "G" "G" NA "E.G21"
"314" 314 22 "E" "G" "G" NA "E.G22"
"315" 315 23 "E" "G" "G" NA "E.G23"
"316" 316 24 "E" "U" "U" NA "E.U24"
"317" 317 25 "E" "C" "C" NA "E.C25"
"318" 318 26 "E" "U" "U" NA "E.U26"
"319" 319 27 "E" "G" "G" NA "E.G27"
"320" 320 28 "E" "A" "A" NA "E.A28"
"321" 321 29 "E" "A" "A" NA "E.A29"
"322" 322 30 "E" "U" "U" NA "E.U30"
"323" 323 31 "E" "C" "C" NA "E.C31"
"324" 324 32 "E" "C" "C" NA "E.C32"
"325" 325 33 "E" "G" "G" NA "E.G33"
"326" 326 34 "E" "A" "A" NA "E.A34"
"327" 327 35 "E" "U" "U" NA "E.U35"
"328" 328 36 "E" "G" "G" NA "E.G36"
"329" 329 37 "E" "G" "G" NA "E.G37"
"330" 330 38 "E" "U" "U" NA "E.U38"
"331" 331 39 "E" "U" "U" NA "E.U39"
"332" 332 40 "E" "G" "G" NA "E.G40"
"333" 333 41 "E" "G" "G" NA "E.G41"
"334" 334 42 "E" "A" "A" NA "E.A42"
"335" 335 43 "E" "U" "U" NA "E.U43"
"336" 336 44 "E" "U" "U" NA "E.U44"
"337" 337 45 "E" "C" "C" NA "E.C45"
"338" 338 46 "E" "U" "U" NA "E.U46"
"339" 339 47 "E" "A" "A" NA "E.A47"
"340" 340 48 "E" "A" "A" NA "E.A48"
"341" 341 49 "E" "A" "A" NA "E.A49"
"342" 342 50 "E" "G" "G" NA "E.G50"
"343" 343 51 "E" "A" "A" NA "E.A51"
"344" 344 52 "E" "C" "C" NA "E.C52"
"345" 345 53 "E" "A" "A" NA "E.A53"
"346" 346 54 "E" "G" "G" NA "E.G54"
"347" 347 55 "E" "A" "A" NA "E.A55"
"348" 348 56 "E" "A" "A" NA "E.A56"
"349" 349 57 "E" "C" "C" NA "E.C57"
"350" 350 58 "E" "C" "C" NA "E.C58"
"351" 351 59 "E" "A" "A" NA "E.A59"
"352" 352 60 "E" "U" "U" NA "E.U60"
"353" 353 61 "E" "C" "C" NA "E.C61"
"354" 354 62 "E" "C" "C" NA "E.C62"
"355" 355 63 "E" "U" "U" NA "E.U63"
"356" 356 64 "E" "G" "G" NA "E.G64"
"357" 357 65 "E" "U" "U" NA "E.U65"
"358" 358 66 "E" "C" "C" NA "E.C66"
"359" 359 67 "E" "U" "U" NA "E.U67"
"360" 360 68 "E" "G" "G" NA "E.G68"
"361" 361 69 "E" "A" "A" NA "E.A69"
"362" 362 70 "E" "C" "C" NA "E.C70"
"363" 363 71 "E" "A" "A" NA "E.A71"
"364" 364 72 "E" "G" "G" NA "E.G72"
"365" 365 73 "E" "A" "A" NA "E.A73"
"366" 366 74 "E" "C" "C" NA "E.C74"
"367" 367 75 "E" "C" "C" NA "E.C75"
"368" 368 76 "E" "C" "C" NA "E.C76"
"369" 369 77 "E" "U" "U" NA "E.U77"
"370" 370 78 "E" "G" "G" NA "E.G78"
"371" 371 79 "E" "A" "A" NA "E.A79"
"372" 372 80 "E" "A" "A" NA "E.A80"
"373" 373 81 "E" "U" "U" NA "E.U81"
"374" 374 82 "E" "C" "C" NA "E.C82"
"375" 375 83 "E" "C" "C" NA "E.C83"
"376" 376 84 "E" "G" "G" NA "E.G84"
"377" 377 85 "E" "A" "A" NA "E.A85"
"378" 378 86 "E" "U" "U" NA "E.U86"
"379" 379 87 "E" "G" "G" NA "E.G87"
"380" 380 88 "E" "G" "G" NA "E.G88"
"381" 381 89 "E" "U" "U" NA "E.U89"
"382" 382 90 "E" "U" "U" NA "E.U90"
"383" 383 91 "E" "G" "G" NA "E.G91"
"384" 384 92 "E" "G" "G" NA "E.G92"
"385" 385 93 "E" "A" "A" NA "E.A93"
"386" 386 94 "E" "U" "U" NA "E.U94"
"387" 387 95 "E" "U" "U" NA "E.U95"
"388" 388 96 "E" "C" "C" NA "E.C96"
"389" 389 97 "E" "U" "U" NA "E.U97"
"390" 390 98 "E" "A" "A" NA "E.A98"
"391" 391 99 "E" "A" "A" NA "E.A99"
"392" 392 100 "E" "A" "A" NA "E.A100"
"393" 393 101 "E" "G" "G" NA "E.G101"
"394" 394 102 "E" "A3" "a" TRUE "E.A3/102"
"395" 395 1 "F" "G5" "g" TRUE "F.G5/1"
"396" 396 2 "F" "G" "G" NA "F.G2"
"397" 397 3 "F" "G" "G" NA "F.G3"
"398" 398 4 "F" "A" "A" NA "F.A4"
"399" 399 5 "F" "A" "A" NA "F.A5"
"400" 400 6 "F" "U" "U" NA "F.U6"
"401" 401 7 "F" "C" "C" NA "F.C7"
"402" 402 8 "F" "C" "C" NA "F.C8"
"403" 403 9 "F" "G" "G" NA "F.G9"
"404" 404 10 "F" "A" "A" NA "F.A10"
"405" 405 11 "F" "U" "U" NA "F.U11"
"406" 406 12 "F" "G" "G" NA "F.G12"
"407" 407 13 "F" "G" "G" NA "F.G13"
"408" 408 14 "F" "U" "U" NA "F.U14"
"409" 409 15 "F" "U" "U" NA "F.U15"
"410" 410 16 "F" "G" "G" NA "F.G16"
"411" 411 17 "F" "G" "G" NA "F.G17"
"412" 412 18 "F" "A" "A" NA "F.A18"
"413" 413 19 "F" "U" "U" NA "F.U19"
"414" 414 20 "F" "U" "U" NA "F.U20"
"415" 415 21 "F" "C" "C" NA "F.C21"
"416" 416 22 "F" "C" "C" NA "F.C22"
"417" 417 23 "F" "C" "C" NA "F.C23"
"418" 418 24 "F" "G" "G" NA "F.G24"
"419" 419 25 "F" "U" "U" NA "F.U25"
"420" 420 26 "F" "C" "C" NA "F.C26"
"421" 421 27 "F" "A" "A" NA "F.A27"
"422" 422 28 "F" "C" "C" NA "F.C28"
"423" 423 29 "F" "A" "A" NA "F.A29"
"424" 424 30 "F" "G" "G" NA "F.G30"
"425" 425 31 "F" "A" "A" NA "F.A31"
"426" 426 32 "F" "A" "A" NA "F.A32"
"427" 427 33 "F" "C" "C" NA "F.C33"
"428" 428 34 "F" "C" "C" NA "F.C34"
"429" 429 35 "F" "A" "A" NA "F.A35"
"430" 430 36 "F" "U" "U" NA "F.U36"
"431" 431 37 "F" "C" "C" NA "F.C37"
"432" 432 38 "F" "C" "C" NA "F.C38"
"433" 433 39 "F" "U" "U" NA "F.U39"
"434" 434 40 "F" "G" "G" NA "F.G40"
"435" 435 41 "F" "U" "U" NA "F.U41"
"436" 436 42 "F" "G" "G" NA "F.G42"
"437" 437 43 "F" "A" "A" NA "F.A43"
"438" 438 44 "F" "C3" "c" TRUE "F.C3/44"
"439" 439 1 "G" "C5" "c" TRUE "G.C5/1"
"440" 440 2 "G" "A" "A" NA "G.A2"
"441" 441 3 "G" "G" "G" NA "G.G3"
"442" 442 4 "G" "A" "A" NA "G.A4"
"443" 443 5 "G" "A" "A" NA "G.A5"
"444" 444 6 "G" "C" "C" NA "G.C6"
"445" 445 7 "G" "C" "C" NA "G.C7"
"446" 446 8 "G" "A" "A" NA "G.A8"
"447" 447 9 "G" "U" "U" NA "G.U9"
"448" 448 10 "G" "C" "C" NA "G.C10"
"449" 449 11 "G" "C" "C" NA "G.C11"
"450" 450 12 "G" "U" "U" NA "G.U12"
"451" 451 13 "G" "G" "G" NA "G.G13"
"452" 452 14 "G" "U" "U" NA "G.U14"
"453" 453 15 "G" "C" "C" NA "G.C15"
"454" 454 16 "G" "U" "U" NA "G.U16"
"455" 455 17 "G" "G" "G" NA "G.G17"
"456" 456 18 "G" "A" "A" NA "G.A18"
"457" 457 19 "G" "C" "C" NA "G.C19"
"458" 458 20 "G" "A" "A" NA "G.A20"
"459" 459 21 "G" "G" "G" NA "G.G21"
"460" 460 22 "G" "U" "U" NA "G.U22"
"461" 461 23 "G" "C" "C" NA "G.C23"
"462" 462 24 "G" "C" "C" NA "G.C24"
"463" 463 25 "G" "C" "C" NA "G.C25"
"464" 464 26 "G" "U" "U" NA "G.U26"
"465" 465 27 "G" "G" "G" NA "G.G27"
"466" 466 28 "G" "A" "A" NA "G.A28"
"467" 467 29 "G" "A" "A" NA "G.A29"
"468" 468 30 "G" "U" "U" NA "G.U30"
"469" 469 31 "G" "C" "C" NA "G.C31"
"470" 470 32 "G" "C" "C" NA "G.C32"
"471" 471 33 "G" "G" "G" NA "G.G33"
"472" 472 34 "G" "A" "A" NA "G.A34"
"473" 473 35 "G" "U" "U" NA "G.U35"
"474" 474 36 "G" "G" "G" NA "G.G36"
"475" 475 37 "G" "G" "G" NA "G.G37"
"476" 476 38 "G" "U" "U" NA "G.U38"
"477" 477 39 "G" "U" "U" NA "G.U39"
"478" 478 40 "G" "G" "G" NA "G.G40"
"479" 479 41 "G" "G" "G" NA "G.G41"
"480" 480 42 "G" "A" "A" NA "G.A42"
"481" 481 43 "G" "U" "U" NA "G.U43"
"482" 482 44 "G" "U" "U" NA "G.U44"
"483" 483 45 "G" "C" "C" NA "G.C45"
"484" 484 46 "G" "U" "U" NA "G.U46"
"485" 485 47 "G" "A" "A" NA "G.A47"
"486" 486 48 "G" "A" "A" NA "G.A48"
"487" 487 49 "G" "A" "A" NA "G.A49"
"488" 488 50 "G" "G" "G" NA "G.G50"
"489" 489 51 "G" "A" "A" NA "G.A51"
"490" 490 52 "G" "C" "C" NA "G.C52"
"491" 491 53 "G" "A" "A" NA "G.A53"
"492" 492 54 "G" "G" "G" NA "G.G54"
"493" 493 55 "G" "A" "A" NA "G.A55"
"494" 494 56 "G" "A" "A" NA "G.A56"
"495" 495 57 "G" "C" "C" NA "G.C57"
"496" 496 58 "G" "C" "C" NA "G.C58"
"497" 497 59 "G" "A" "A" NA "G.A59"
"498" 498 60 "G" "U" "U" NA "G.U60"
"499" 499 61 "G" "C" "C" NA "G.C61"
"500" 500 62 "G" "C" "C" NA "G.C62"
"501" 501 63 "G" "U" "U" NA "G.U63"
"502" 502 64 "G" "G" "G" NA "G.G64"
"503" 503 65 "G" "U" "U" NA "G.U65"
"504" 504 66 "G" "C" "C" NA "G.C66"
"505" 505 67 "G" "U" "U" NA "G.U67"
"506" 506 68 "G" "G" "G" NA "G.G68"
"507" 507 69 "G" "A" "A" NA "G.A69"
"508" 508 70 "G" "C" "C" NA "G.C70"
"509" 509 71 "G" "A" "A" NA "G.A71"
"510" 510 72 "G" "G" "G" NA "G.G72"
"511" 511 73 "G" "G" "G" NA "G.G73"
"512" 512 74 "G" "G" "G" NA "G.G74"
"513" 513 75 "G" "A" "A" NA "G.A75"
"514" 514 76 "G" "C" "C" NA "G.C76"
"515" 515 77 "G" "U" "U" NA "G.U77"
"516" 516 78 "G" "G" "G" NA "G.G78"
"517" 517 79 "G" "A" "A" NA "G.A79"
"518" 518 80 "G" "A" "A" NA "G.A80"
"519" 519 81 "G" "U" "U" NA "G.U81"
"520" 520 82 "G" "C" "C" NA "G.C82"
"521" 521 83 "G" "C" "C" NA "G.C83"
"522" 522 84 "G" "G" "G" NA "G.G84"
"523" 523 85 "G" "A" "A" NA "G.A85"
"524" 524 86 "G" "U" "U" NA "G.U86"
"525" 525 87 "G" "G" "G" NA "G.G87"
"526" 526 88 "G" "G" "G" NA "G.G88"
"527" 527 89 "G" "U" "U" NA "G.U89"
"528" 528 90 "G" "U" "U" NA "G.U90"
"529" 529 91 "G" "G" "G" NA "G.G91"
"530" 530 92 "G" "G" "G" NA "G.G92"
"531" 531 93 "G" "A" "A" NA "G.A93"
"532" 532 94 "G" "U" "U" NA "G.U94"
"533" 533 95 "G" "U" "U" NA "G.U95"
"534" 534 96 "G" "C" "C" NA "G.C96"
"535" 535 97 "G" "U" "U" NA "G.U97"
"536" 536 98 "G" "A" "A" NA "G.A98"
"537" 537 99 "G" "A" "A" NA "G.A99"
"538" 538 100 "G" "A" "A" NA "G.A100"
"539" 539 101 "G" "G" "G" NA "G.G101"
"540" 540 102 "G" "A3" "a" TRUE "G.A3/102"
"541" 541 1 "H" "G5" "g" TRUE "H.G5/1"
"542" 542 2 "H" "G" "G" NA "H.G2"
"543" 543 3 "H" "G" "G" NA "H.G3"
"544" 544 4 "H" "A" "A" NA "H.A4"
"545" 545 5 "H" "A" "A" NA "H.A5"
"546" 546 6 "H" "U" "U" NA "H.U6"
"547" 547 7 "H" "C" "C" NA "H.C7"
"548" 548 8 "H" "C" "C" NA "H.C8"
"549" 549 9 "H" "G" "G" NA "H.G9"
"550" 550 10 "H" "A" "A" NA "H.A10"
"551" 551 11 "H" "U" "U" NA "H.U11"
"552" 552 12 "H" "G" "G" NA "H.G12"
"553" 553 13 "H" "G" "G" NA "H.G13"
"554" 554 14 "H" "U" "U" NA "H.U14"
"555" 555 15 "H" "U" "U" NA "H.U15"
"556" 556 16 "H" "G" "G" NA "H.G16"
"557" 557 17 "H" "G" "G" NA "H.G17"
"558" 558 18 "H" "A" "A" NA "H.A18"
"559" 559 19 "H" "U" "U" NA "H.U19"
"560" 560 20 "H" "U" "U" NA "H.U20"
"561" 561 21 "H" "C" "C" NA "H.C21"
"562" 562 22 "H" "C" "C" NA "H.C22"
"563" 563 23 "H" "C" "C" NA "H.C23"
"564" 564 24 "H" "G" "G" NA "H.G24"
"565" 565 25 "H" "U" "U" NA "H.U25"
"566" 566 26 "H" "C" "C" NA "H.C26"
"567" 567 27 "H" "A" "A" NA "H.A27"
"568" 568 28 "H" "C" "C" NA "H.C28"
"569" 569 29 "H" "A" "A" NA "H.A29"
"570" 570 30 "H" "G" "G" NA "H.G30"
"571" 571 31 "H" "A" "A" NA "H.A31"
"572" 572 32 "H" "A" "A" NA "H.A32"
"573" 573 33 "H" "C" "C" NA "H.C33"
"574" 574 34 "H" "C" "C" NA "H.C34"
"575" 575 35 "H" "A" "A" NA "H.A35"
"576" 576 36 "H" "U" "U" NA "H.U36"
"577" 577 37 "H" "C" "C" NA "H.C37"
"578" 578 38 "H" "C" "C" NA "H.C38"
"579" 579 39 "H" "U" "U" NA "H.U39"
"580" 580 40 "H" "G" "G" NA "H.G40"
"581" 581 41 "H" "U" "U" NA "H.U41"
"582" 582 42 "H" "G" "G" NA "H.G42"
"583" 583 43 "H" "A" "A" NA "H.A43"
"584" 584 44 "H" "C3" "c" TRUE "H.C3/44"
"585" 585 1 "J" "G5" "g" TRUE "J.G5/1"
"586" 586 2 "J" "G" "G" NA "J.G2"
"587" 587 3 "J" "G" "G" NA "J.G3"
"588" 588 4 "J" "A" "A" NA "J.A4"
"589" 589 5 "J" "A" "A" NA "J.A5"
"590" 590 6 "J" "U" "U" NA "J.U6"
"591" 591 7 "J" "C" "C" NA "J.C7"
"592" 592 8 "J" "C" "C" NA "J.C8"
"593" 593 9 "J" "G" "G" NA "J.G9"
"594" 594 10 "J" "A" "A" NA "J.A10"
"595" 595 11 "J" "U" "U" NA "J.U11"
"596" 596 12 "J" "G" "G" NA "J.G12"
"597" 597 13 "J" "G" "G" NA "J.G13"
"598" 598 14 "J" "U" "U" NA "J.U14"
"599" 599 15 "J" "U" "U" NA "J.U15"
"600" 600 16 "J" "G" "G" NA "J.G16"
"601" 601 17 "J" "G" "G" NA "J.G17"
"602" 602 18 "J" "A" "A" NA "J.A18"
"603" 603 19 "J" "U" "U" NA "J.U19"
"604" 604 20 "J" "U" "U" NA "J.U20"
"605" 605 21 "J" "C" "C" NA "J.C21"
"606" 606 22 "J" "C" "C" NA "J.C22"
"607" 607 23 "J" "C" "C" NA "J.C23"
"608" 608 24 "J" "G" "G" NA "J.G24"
"609" 609 25 "J" "U" "U" NA "J.U25"
"610" 610 26 "J" "C" "C" NA "J.C26"
"611" 611 27 "J" "A" "A" NA "J.A27"
"612" 612 28 "J" "C" "C" NA "J.C28"
"613" 613 29 "J" "A" "A" NA "J.A29"
"614" 614 30 "J" "G" "G" NA "J.G30"
"615" 615 31 "J" "A" "A" NA "J.A31"
"616" 616 32 "J" "A" "A" NA "J.A32"
"617" 617 33 "J" "C" "C" NA "J.C33"
"618" 618 34 "J" "C" "C" NA "J.C34"
"619" 619 35 "J" "A" "A" NA "J.A35"
"620" 620 36 "J" "U" "U" NA "J.U36"
"621" 621 37 "J" "C" "C" NA "J.C37"
"622" 622 38 "J" "C" "C" NA "J.C38"
"623" 623 39 "J" "U" "U" NA "J.U39"
"624" 624 40 "J" "G" "G" NA "J.G40"
"625" 625 41 "J" "U" "U" NA "J.U41"
"626" 626 42 "J" "G" "G" NA "J.G42"
"627" 627 43 "J" "A" "A" NA "J.A43"
"628" 628 44 "J" "C3" "c" TRUE "J.C3/44"
"629" 629 1 "K" "C5" "c" TRUE "K.C5/1"
"630" 630 2 "K" "A" "A" NA "K.A2"
"631" 631 3 "K" "G" "G" NA "K.G3"
"632" 632 4 "K" "A" "A" NA "K.A4"
"633" 633 5 "K" "A" "A" NA "K.A5"
"634" 634 6 "K" "C" "C" NA "K.C6"
"635" 635 7 "K" "C" "C" NA "K.C7"
"636" 636 8 "K" "A" "A" NA "K.A8"
"637" 637 9 "K" "U" "U" NA "K.U9"
"638" 638 10 "K" "C" "C" NA "K.C10"
"639" 639 11 "K" "C" "C" NA "K.C11"
"640" 640 12 "K" "U" "U" NA "K.U12"
"641" 641 13 "K" "G" "G" NA "K.G13"
"642" 642 14 "K" "U" "U" NA "K.U14"
"643" 643 15 "K" "C" "C" NA "K.C15"
"644" 644 16 "K" "U" "U" NA "K.U16"
"645" 645 17 "K" "G" "G" NA "K.G17"
"646" 646 18 "K" "A" "A" NA "K.A18"
"647" 647 19 "K" "C" "C" NA "K.C19"
"648" 648 20 "K" "A" "A" NA "K.A20"
"649" 649 21 "K" "G" "G" NA "K.G21"
"650" 650 22 "K" "G" "G" NA "K.G22"
"651" 651 23 "K" "G" "G" NA "K.G23"
"652" 652 24 "K" "A" "A" NA "K.A24"
"653" 653 25 "K" "C" "C" NA "K.C25"
"654" 654 26 "K" "U" "U" NA "K.U26"
"655" 655 27 "K" "G" "G" NA "K.G27"
"656" 656 28 "K" "A" "A" NA "K.A28"
"657" 657 29 "K" "A" "A" NA "K.A29"
"658" 658 30 "K" "U" "U" NA "K.U30"
"659" 659 31 "K" "C" "C" NA "K.C31"
"660" 660 32 "K" "C" "C" NA "K.C32"
"661" 661 33 "K" "G" "G" NA "K.G33"
"662" 662 34 "K" "A" "A" NA "K.A34"
"663" 663 35 "K" "U" "U" NA "K.U35"
"664" 664 36 "K" "G" "G" NA "K.G36"
"665" 665 37 "K" "G" "G" NA "K.G37"
"666" 666 38 "K" "U" "U" NA "K.U38"
"667" 667 39 "K" "U" "U" NA "K.U39"
"668" 668 40 "K" "G" "G" NA "K.G40"
"669" 669 41 "K" "G" "G" NA "K.G41"
"670" 670 42 "K" "A" "A" NA "K.A42"
"671" 671 43 "K" "U" "U" NA "K.U43"
"672" 672 44 "K" "U" "U" NA "K.U44"
"673" 673 45 "K" "C" "C" NA "K.C45"
"674" 674 46 "K" "U" "U" NA "K.U46"
"675" 675 47 "K" "A" "A" NA "K.A47"
"676" 676 48 "K" "A" "A" NA "K.A48"
"677" 677 49 "K" "A" "A" NA "K.A49"
"678" 678 50 "K" "G" "G" NA "K.G50"
"679" 679 51 "K" "A" "A" NA "K.A51"
"680" 680 52 "K" "C" "C" NA "K.C52"
"681" 681 53 "K" "A" "A" NA "K.A53"
"682" 682 54 "K" "G" "G" NA "K.G54"
"683" 683 55 "K" "A" "A" NA "K.A55"
"684" 684 56 "K" "A" "A" NA "K.A56"
"685" 685 57 "K" "C" "C" NA "K.C57"
"686" 686 58 "K" "C" "C" NA "K.C58"
"687" 687 59 "K" "A" "A" NA "K.A59"
"688" 688 60 "K" "U" "U" NA "K.U60"
"689" 689 61 "K" "C" "C" NA "K.C61"
"690" 690 62 "K" "C" "C" NA "K.C62"
"691" 691 63 "K" "U" "U" NA "K.U63"
"692" 692 64 "K" "G" "G" NA "K.G64"
"693" 693 65 "K" "U" "U" NA "K.U65"
"694" 694 66 "K" "C" "C" NA "K.C66"
"695" 695 67 "K" "U" "U" NA "K.U67"
"696" 696 68 "K" "G" "G" NA "K.G68"
"697" 697 69 "K" "A" "A" NA "K.A69"
"698" 698 70 "K" "C" "C" NA "K.C70"
"699" 699 71 "K" "A" "A" NA "K.A71"
"700" 700 72 "K" "G" "G" NA "K.G72"
"701" 701 73 "K" "U" "U" NA "K.U73"
"702" 702 74 "K" "C" "C" NA "K.C74"
"703" 703 75 "K" "C" "C" NA "K.C75"
"704" 704 76 "K" "C" "C" NA "K.C76"
"705" 705 77 "K" "U" "U" NA "K.U77"
"706" 706 78 "K" "G" "G" NA "K.G78"
"707" 707 79 "K" "A" "A" NA "K.A79"
"708" 708 80 "K" "A" "A" NA "K.A80"
"709" 709 81 "K" "U" "U" NA "K.U81"
"710" 710 82 "K" "C" "C" NA "K.C82"
"711" 711 83 "K" "C" "C" NA "K.C83"
"712" 712 84 "K" "G" "G" NA "K.G84"
"713" 713 85 "K" "A" "A" NA "K.A85"
"714" 714 86 "K" "U" "U" NA "K.U86"
"715" 715 87 "K" "G" "G" NA "K.G87"
"716" 716 88 "K" "G" "G" NA "K.G88"
"717" 717 89 "K" "U" "U" NA "K.U89"
"718" 718 90 "K" "U" "U" NA "K.U90"
"719" 719 91 "K" "G" "G" NA "K.G91"
"720" 720 92 "K" "G" "G" NA "K.G92"
"721" 721 93 "K" "A" "A" NA "K.A93"
"722" 722 94 "K" "U" "U" NA "K.U94"
"723" 723 95 "K" "U" "U" NA "K.U95"
"724" 724 96 "K" "C" "C" NA "K.C96"
"725" 725 97 "K" "U" "U" NA "K.U97"
"726" 726 98 "K" "A" "A" NA "K.A98"
"727" 727 99 "K" "A" "A" NA "K.A99"
"728" 728 100 "K" "A" "A" NA "K.A100"
"729" 729 101 "K" "G" "G" NA "K.G101"
"730" 730 102 "K" "A3" "a" TRUE "K.A3/102"
"731" 731 1 "L" "G5" "g" TRUE "L.G5/1"
"732" 732 2 "L" "G" "G" NA "L.G2"
"733" 733 3 "L" "G" "G" NA "L.G3"
"734" 734 4 "L" "A" "A" NA "L.A4"
"735" 735 5 "L" "A" "A" NA "L.A5"
"736" 736 6 "L" "U" "U" NA "L.U6"
"737" 737 7 "L" "C" "C" NA "L.C7"
"738" 738 8 "L" "C" "C" NA "L.C8"
"739" 739 9 "L" "G" "G" NA "L.G9"
"740" 740 10 "L" "A" "A" NA "L.A10"
"741" 741 11 "L" "U" "U" NA "L.U11"
"742" 742 12 "L" "G" "G" NA "L.G12"
"743" 743 13 "L" "G" "G" NA "L.G13"
"744" 744 14 "L" "U" "U" NA "L.U14"
"745" 745 15 "L" "U" "U" NA "L.U15"
"746" 746 16 "L" "G" "G" NA "L.G16"
"747" 747 17 "L" "G" "G" NA "L.G17"
"748" 748 18 "L" "A" "A" NA "L.A18"
"749" 749 19 "L" "U" "U" NA "L.U19"
"750" 750 20 "L" "U" "U" NA "L.U20"
"751" 751 21 "L" "C" "C" NA "L.C21"
"752" 752 22 "L" "C" "C" NA "L.C22"
"753" 753 23 "L" "C" "C" NA "L.C23"
"754" 754 24 "L" "G" "G" NA "L.G24"
"755" 755 25 "L" "U" "U" NA "L.U25"
"756" 756 26 "L" "C" "C" NA "L.C26"
"757" 757 27 "L" "A" "A" NA "L.A27"
"758" 758 28 "L" "C" "C" NA "L.C28"
"759" 759 29 "L" "A" "A" NA "L.A29"
"760" 760 30 "L" "G" "G" NA "L.G30"
"761" 761 31 "L" "A" "A" NA "L.A31"
"762" 762 32 "L" "A" "A" NA "L.A32"
"763" 763 33 "L" "C" "C" NA "L.C33"
"764" 764 34 "L" "C" "C" NA "L.C34"
"765" 765 35 "L" "A" "A" NA "L.A35"
"766" 766 36 "L" "U" "U" NA "L.U36"
"767" 767 37 "L" "C" "C" NA "L.C37"
"768" 768 38 "L" "C" "C" NA "L.C38"
"769" 769 39 "L" "U" "U" NA "L.U39"
"770" 770 40 "L" "G" "G" NA "L.G40"
"771" 771 41 "L" "U" "U" NA "L.U41"
"772" 772 42 "L" "G" "G" NA "L.G42"
"773" 773 43 "L" "A" "A" NA "L.A43"
"774" 774 44 "L" "C3" "c" TRUE "L.C3/44"
"775" 775 1 "N" "G5" "g" TRUE "N.G5/1"
"776" 776 2 "N" "G" "G" NA "N.G2"
"777" 777 3 "N" "G" "G" NA "N.G3"
"778" 778 4 "N" "A" "A" NA "N.A4"
"779" 779 5 "N" "A" "A" NA "N.A5"
"780" 780 6 "N" "U" "U" NA "N.U6"
"781" 781 7 "N" "C" "C" NA "N.C7"
"782" 782 8 "N" "C" "C" NA "N.C8"
"783" 783 9 "N" "G" "G" NA "N.G9"
"784" 784 10 "N" "A" "A" NA "N.A10"
"785" 785 11 "N" "U" "U" NA "N.U11"
"786" 786 12 "N" "G" "G" NA "N.G12"
"787" 787 13 "N" "G" "G" NA "N.G13"
"788" 788 14 "N" "U" "U" NA "N.U14"
"789" 789 15 "N" "U" "U" NA "N.U15"
"790" 790 16 "N" "G" "G" NA "N.G16"
"791" 791 17 "N" "G" "G" NA "N.G17"
"792" 792 18 "N" "A" "A" NA "N.A18"
"793" 793 19 "N" "U" "U" NA "N.U19"
"794" 794 20 "N" "U" "U" NA "N.U20"
"795" 795 21 "N" "C" "C" NA "N.C21"
"796" 796 22 "N" "C" "C" NA "N.C22"
"797" 797 23 "N" "C" "C" NA "N.C23"
"798" 798 24 "N" "G" "G" NA "N.G24"
"799" 799 25 "N" "U" "U" NA "N.U25"
"800" 800 26 "N" "C" "C" NA "N.C26"
"801" 801 27 "N" "A" "A" NA "N.A27"
"802" 802 28 "N" "C" "C" NA "N.C28"
"803" 803 29 "N" "A" "A" NA "N.A29"
"804" 804 30 "N" "G" "G" NA "N.G30"
"805" 805 31 "N" "A" "A" NA "N.A31"
"806" 806 32 "N" "A" "A" NA "N.A32"
"807" 807 33 "N" "C" "C" NA "N.C33"
"808" 808 34 "N" "C" "C" NA "N.C34"
"809" 809 35 "N" "A" "A" NA "N.A35"
"810" 810 36 "N" "U" "U" NA "N.U36"
"811" 811 37 "N" "C" "C" NA "N.C37"
"812" 812 38 "N" "C" "C" NA "N.C38"
"813" 813 39 "N" "U" "U" NA "N.U39"
"814" 814 40 "N" "G" "G" NA "N.G40"
"815" 815 41 "N" "U" "U" NA "N.U41"
"816" 816 42 "N" "G" "G" NA "N.G42"
"817" 817 43 "N" "A" "A" NA "N.A43"
"818" 818 44 "N" "C3" "c" TRUE "N.C3/44"
"819" 819 1 "O" "C5" "c" TRUE "O.C5/1"
"820" 820 2 "O" "A" "A" NA "O.A2"
"821" 821 3 "O" "G" "G" NA "O.G3"
"822" 822 4 "O" "A" "A" NA "O.A4"
"823" 823 5 "O" "A" "A" NA "O.A5"
"824" 824 6 "O" "C" "C" NA "O.C6"
"825" 825 7 "O" "C" "C" NA "O.C7"
"826" 826 8 "O" "A" "A" NA "O.A8"
"827" 827 9 "O" "U" "U" NA "O.U9"
"828" 828 10 "O" "C" "C" NA "O.C10"
"829" 829 11 "O" "C" "C" NA "O.C11"
"830" 830 12 "O" "U" "U" NA "O.U12"
"831" 831 13 "O" "G" "G" NA "O.G13"
"832" 832 14 "O" "U" "U" NA "O.U14"
"833" 833 15 "O" "C" "C" NA "O.C15"
"834" 834 16 "O" "U" "U" NA "O.U16"
"835" 835 17 "O" "G" "G" NA "O.G17"
"836" 836 18 "O" "A" "A" NA "O.A18"
"837" 837 19 "O" "C" "C" NA "O.C19"
"838" 838 20 "O" "A" "A" NA "O.A20"
"839" 839 21 "O" "G" "G" NA "O.G21"
"840" 840 22 "O" "G" "G" NA "O.G22"
"841" 841 23 "O" "G" "G" NA "O.G23"
"842" 842 24 "O" "A" "A" NA "O.A24"
"843" 843 25 "O" "C" "C" NA "O.C25"
"844" 844 26 "O" "U" "U" NA "O.U26"
"845" 845 27 "O" "G" "G" NA "O.G27"
"846" 846 28 "O" "A" "A" NA "O.A28"
"847" 847 29 "O" "A" "A" NA "O.A29"
"848" 848 30 "O" "U" "U" NA "O.U30"
"849" 849 31 "O" "C" "C" NA "O.C31"
"850" 850 32 "O" "C" "C" NA "O.C32"
"851" 851 33 "O" "G" "G" NA "O.G33"
"852" 852 34 "O" "A" "A" NA "O.A34"
"853" 853 35 "O" "U" "U" NA "O.U35"
"854" 854 36 "O" "G" "G" NA "O.G36"
"855" 855 37 "O" "G" "G" NA "O.G37"
"856" 856 38 "O" "U" "U" NA "O.U38"
"857" 857 39 "O" "U" "U" NA "O.U39"
"858" 858 40 "O" "G" "G" NA "O.G40"
"859" 859 41 "O" "G" "G" NA "O.G41"
"860" 860 42 "O" "A" "A" NA "O.A42"
"861" 861 43 "O" "U" "U" NA "O.U43"
"862" 862 44 "O" "U" "U" NA "O.U44"
"863" 863 45 "O" "C" "C" NA "O.C45"
"864" 864 46 "O" "U" "U" NA "O.U46"
"865" 865 47 "O" "A" "A" NA "O.A47"
"866" 866 48 "O" "A" "A" NA "O.A48"
"867" 867 49 "O" "A" "A" NA "O.A49"
"868" 868 50 "O" "G" "G" NA "O.G50"
"869" 869 51 "O" "A" "A" NA "O.A51"
"870" 870 52 "O" "C" "C" NA "O.C52"
"871" 871 53 "O" "A" "A" NA "O.A53"
"872" 872 54 "O" "G" "G" NA "O.G54"
"873" 873 55 "O" "A" "A" NA "O.A55"
"874" 874 56 "O" "A" "A" NA "O.A56"
"875" 875 57 "O" "C" "C" NA "O.C57"
"876" 876 58 "O" "C" "C" NA "O.C58"
"877" 877 59 "O" "A" "A" NA "O.A59"
"878" 878 60 "O" "U" "U" NA "O.U60"
"879" 879 61 "O" "C" "C" NA "O.C61"
"880" 880 62 "O" "C" "C" NA "O.C62"
"881" 881 63 "O" "U" "U" NA "O.U63"
"882" 882 64 "O" "G" "G" NA "O.G64"
"883" 883 65 "O" "U" "U" NA "O.U65"
"884" 884 66 "O" "C" "C" NA "O.C66"
"885" 885 67 "O" "U" "U" NA "O.U67"
"886" 886 68 "O" "G" "G" NA "O.G68"
"887" 887 69 "O" "A" "A" NA "O.A69"
"888" 888 70 "O" "C" "C" NA "O.C70"
"889" 889 71 "O" "A" "A" NA "O.A71"
"890" 890 72 "O" "G" "G" NA "O.G72"
"891" 891 73 "O" "U" "U" NA "O.U73"
"892" 892 74 "O" "C" "C" NA "O.C74"
"893" 893 75 "O" "C" "C" NA "O.C75"
"894" 894 76 "O" "C" "C" NA "O.C76"
"895" 895 77 "O" "U" "U" NA "O.U77"
"896" 896 78 "O" "G" "G" NA "O.G78"
"897" 897 79 "O" "A" "A" NA "O.A79"
"898" 898 80 "O" "A" "A" NA "O.A80"
"899" 899 81 "O" "U" "U" NA "O.U81"
"900" 900 82 "O" "C" "C" NA "O.C82"
"901" 901 83 "O" "C" "C" NA "O.C83"
"902" 902 84 "O" "G" "G" NA "O.G84"
"903" 903 85 "O" "A" "A" NA "O.A85"
"904" 904 86 "O" "U" "U" NA "O.U86"
"905" 905 87 "O" "G" "G" NA "O.G87"
"906" 906 88 "O" "G" "G" NA "O.G88"
"907" 907 89 "O" "U" "U" NA "O.U89"
"908" 908 90 "O" "U" "U" NA "O.U90"
"909" 909 91 "O" "G" "G" NA "O.G91"
"910" 910 92 "O" "G" "G" NA "O.G92"
"911" 911 93 "O" "A" "A" NA "O.A93"
"912" 912 94 "O" "U" "U" NA "O.U94"
"913" 913 95 "O" "U" "U" NA "O.U95"
"914" 914 96 "O" "C" "C" NA "O.C96"
"915" 915 97 "O" "U" "U" NA "O.U97"
"916" 916 98 "O" "A" "A" NA "O.A98"
"917" 917 99 "O" "A" "A" NA "O.A99"
"918" 918 100 "O" "A" "A" NA "O.A100"
"919" 919 101 "O" "G" "G" NA "O.G101"
"920" 920 102 "O" "A3" "a" TRUE "O.A3/102"
"921" 921 1 "P" "G5" "g" TRUE "P.G5/1"
"922" 922 2 "P" "G" "G" NA "P.G2"
"923" 923 3 "P" "G" "G" NA "P.G3"
"924" 924 4 "P" "A" "A" NA "P.A4"
"925" 925 5 "P" "A" "A" NA "P.A5"
"926" 926 6 "P" "U" "U" NA "P.U6"
"927" 927 7 "P" "C" "C" NA "P.C7"
"928" 928 8 "P" "C" "C" NA "P.C8"
"929" 929 9 "P" "G" "G" NA "P.G9"
"930" 930 10 "P" "A" "A" NA "P.A10"
"931" 931 11 "P" "U" "U" NA "P.U11"
"932" 932 12 "P" "G" "G" NA "P.G12"
"933" 933 13 "P" "G" "G" NA "P.G13"
"934" 934 14 "P" "U" "U" NA "P.U14"
"935" 935 15 "P" "U" "U" NA "P.U15"
"936" 936 16 "P" "G" "G" NA "P.G16"
"937" 937 17 "P" "G" "G" NA "P.G17"
"938" 938 18 "P" "A" "A" NA "P.A18"
"939" 939 19 "P" "U" "U" NA "P.U19"
"940" 940 20 "P" "U" "U" NA "P.U20"
"941" 941 21 "P" "C" "C" NA "P.C21"
"942" 942 22 "P" "C" "C" NA "P.C22"
"943" 943 23 "P" "C" "C" NA "P.C23"
"944" 944 24 "P" "G" "G" NA "P.G24"
"945" 945 25 "P" "U" "U" NA "P.U25"
"946" 946 26 "P" "C" "C" NA "P.C26"
"947" 947 27 "P" "A" "A" NA "P.A27"
"948" 948 28 "P" "C" "C" NA "P.C28"
"949" 949 29 "P" "A" "A" NA "P.A29"
"950" 950 30 "P" "G" "G" NA "P.G30"
"951" 951 31 "P" "A" "A" NA "P.A31"
"952" 952 32 "P" "A" "A" NA "P.A32"
"953" 953 33 "P" "C" "C" NA "P.C33"
"954" 954 34 "P" "C" "C" NA "P.C34"
"955" 955 35 "P" "A" "A" NA "P.A35"
"956" 956 36 "P" "U" "U" NA "P.U36"
"957" 957 37 "P" "C" "C" NA "P.C37"
"958" 958 38 "P" "C" "C" NA "P.C38"
"959" 959 39 "P" "U" "U" NA "P.U39"
"960" 960 40 "P" "G" "G" NA "P.G40"
"961" 961 41 "P" "U" "U" NA "P.U41"
"962" 962 42 "P" "G" "G" NA "P.G42"
"963" 963 43 "P" "A" "A" NA "P.A43"
"964" 964 44 "P" "C3" "c" TRUE "P.C3/44"
"965" 965 1 "R" "G5" "g" TRUE "R.G5/1"
"966" 966 2 "R" "G" "G" NA "R.G2"
"967" 967 3 "R" "G" "G" NA "R.G3"
"968" 968 4 "R" "A" "A" NA "R.A4"
"969" 969 5 "R" "A" "A" NA "R.A5"
"970" 970 6 "R" "U" "U" NA "R.U6"
"971" 971 7 "R" "C" "C" NA "R.C7"
"972" 972 8 "R" "C" "C" NA "R.C8"
"973" 973 9 "R" "G" "G" NA "R.G9"
"974" 974 10 "R" "A" "A" NA "R.A10"
"975" 975 11 "R" "U" "U" NA "R.U11"
"976" 976 12 "R" "G" "G" NA "R.G12"
"977" 977 13 "R" "G" "G" NA "R.G13"
"978" 978 14 "R" "U" "U" NA "R.U14"
"979" 979 15 "R" "U" "U" NA "R.U15"
"980" 980 16 "R" "G" "G" NA "R.G16"
"981" 981 17 "R" "G" "G" NA "R.G17"
"982" 982 18 "R" "A" "A" NA "R.A18"
"983" 983 19 "R" "U" "U" NA "R.U19"
"984" 984 20 "R" "U" "U" NA "R.U20"
"985" 985 21 "R" "C" "C" NA "R.C21"
"986" 986 22 "R" "C" "C" NA "R.C22"
"987" 987 23 "R" "C" "C" NA "R.C23"
"988" 988 24 "R" "G" "G" NA "R.G24"
"989" 989 25 "R" "U" "U" NA "R.U25"
"990" 990 26 "R" "C" "C" NA "R.C26"
"991" 991 27 "R" "A" "A" NA "R.A27"
"992" 992 28 "R" "C" "C" NA "R.C28"
"993" 993 29 "R" "A" "A" NA "R.A29"
"994" 994 30 "R" "G" "G" NA "R.G30"
"995" 995 31 "R" "A" "A" NA "R.A31"
"996" 996 32 "R" "A" "A" NA "R.A32"
"997" 997 33 "R" "C" "C" NA "R.C33"
"998" 998 34 "R" "C" "C" NA "R.C34"
"999" 999 35 "R" "A" "A" NA "R.A35"
"1000" 1000 36 "R" "U" "U" NA "R.U36"
"1001" 1001 37 "R" "C" "C" NA "R.C37"
"1002" 1002 38 "R" "C" "C" NA "R.C38"
"1003" 1003 39 "R" "U" "U" NA "R.U39"
"1004" 1004 40 "R" "G" "G" NA "R.G40"
"1005" 1005 41 "R" "U" "U" NA "R.U41"
"1006" 1006 42 "R" "G" "G" NA "R.G42"
"1007" 1007 43 "R" "A" "A" NA "R.A43"
"1008" 1008 44 "R" "C3" "c" TRUE "R.C3/44"
"1009" 1009 1 "T" "G5" "g" TRUE "T.G5/1"
"1010" 1010 2 "T" "G" "G" NA "T.G2"
"1011" 1011 3 "T" "G" "G" NA "T.G3"
"1012" 1012 4 "T" "A" "A" NA "T.A4"
"1013" 1013 5 "T" "A" "A" NA "T.A5"
"1014" 1014 6 "T" "U" "U" NA "T.U6"
"1015" 1015 7 "T" "C" "C" NA "T.C7"
"1016" 1016 8 "T" "C" "C" NA "T.C8"
"1017" 1017 9 "T" "G" "G" NA "T.G9"
"1018" 1018 10 "T" "A" "A" NA "T.A10"
"1019" 1019 11 "T" "U" "U" NA "T.U11"
"1020" 1020 12 "T" "G" "G" NA "T.G12"
"1021" 1021 13 "T" "G" "G" NA "T.G13"
"1022" 1022 14 "T" "U" "U" NA "T.U14"
"1023" 1023 15 "T" "U" "U" NA "T.U15"
"1024" 1024 16 "T" "G" "G" NA "T.G16"
"1025" 1025 17 "T" "G" "G" NA "T.G17"
"1026" 1026 18 "T" "A" "A" NA "T.A18"
"1027" 1027 19 "T" "U" "U" NA "T.U19"
"1028" 1028 20 "T" "U" "U" NA "T.U20"
"1029" 1029 21 "T" "C" "C" NA "T.C21"
"1030" 1030 22 "T" "C" "C" NA "T.C22"
"1031" 1031 23 "T" "C" "C" NA "T.C23"
"1032" 1032 24 "T" "G" "G" NA "T.G24"
"1033" 1033 25 "T" "U" "U" NA "T.U25"
"1034" 1034 26 "T" "C" "C" NA "T.C26"
"1035" 1035 27 "T" "A" "A" NA "T.A27"
"1036" 1036 28 "T" "C" "C" NA "T.C28"
"1037" 1037 29 "T" "A" "A" NA "T.A29"
"1038" 1038 30 "T" "G" "G" NA "T.G30"
"1039" 1039 31 "T" "A" "A" NA "T.A31"
"1040" 1040 32 "T" "A" "A" NA "T.A32"
"1041" 1041 33 "T" "C" "C" NA "T.C33"
"1042" 1042 34 "T" "C" "C" NA "T.C34"
"1043" 1043 35 "T" "A" "A" NA "T.A35"
"1044" 1044 36 "T" "U" "U" NA "T.U36"
"1045" 1045 37 "T" "C" "C" NA "T.C37"
"1046" 1046 38 "T" "C" "C" NA "T.C38"
"1047" 1047 39 "T" "U" "U" NA "T.U39"
"1048" 1048 40 "T" "G" "G" NA "T.G40"
"1049" 1049 41 "T" "U" "U" NA "T.U41"
"1050" 1050 42 "T" "G" "G" NA "T.G42"
"1051" 1051 43 "T" "A" "A" NA "T.A43"
"1052" 1052 44 "T" "C3" "c" TRUE "T.C3/44"
"1053" 1053 1 "V" "G5" "g" TRUE "V.G5/1"
"1054" 1054 2 "V" "G" "G" NA "V.G2"
"1055" 1055 3 "V" "G" "G" NA "V.G3"
"1056" 1056 4 "V" "A" "A" NA "V.A4"
"1057" 1057 5 "V" "A" "A" NA "V.A5"
"1058" 1058 6 "V" "U" "U" NA "V.U6"
"1059" 1059 7 "V" "C" "C" NA "V.C7"
"1060" 1060 8 "V" "C" "C" NA "V.C8"
"1061" 1061 9 "V" "G" "G" NA "V.G9"
"1062" 1062 10 "V" "A" "A" NA "V.A10"
"1063" 1063 11 "V" "U" "U" NA "V.U11"
"1064" 1064 12 "V" "G" "G" NA "V.G12"
"1065" 1065 13 "V" "G" "G" NA "V.G13"
"1066" 1066 14 "V" "U" "U" NA "V.U14"
"1067" 1067 15 "V" "U" "U" NA "V.U15"
"1068" 1068 16 "V" "G" "G" NA "V.G16"
"1069" 1069 17 "V" "G" "G" NA "V.G17"
"1070" 1070 18 "V" "A" "A" NA "V.A18"
"1071" 1071 19 "V" "U" "U" NA "V.U19"
"1072" 1072 20 "V" "U" "U" NA "V.U20"
"1073" 1073 21 "V" "C" "C" NA "V.C21"
"1074" 1074 22 "V" "C" "C" NA "V.C22"
"1075" 1075 23 "V" "C" "C" NA "V.C23"
"1076" 1076 24 "V" "G" "G" NA "V.G24"
"1077" 1077 25 "V" "U" "U" NA "V.U25"
"1078" 1078 26 "V" "C" "C" NA "V.C26"
"1079" 1079 27 "V" "A" "A" NA "V.A27"
"1080" 1080 28 "V" "C" "C" NA "V.C28"
"1081" 1081 29 "V" "A" "A" NA "V.A29"
"1082" 1082 30 "V" "G" "G" NA "V.G30"
"1083" 1083 31 "V" "A" "A" NA "V.A31"
"1084" 1084 32 "V" "A" "A" NA "V.A32"
"1085" 1085 33 "V" "C" "C" NA "V.C33"
"1086" 1086 34 "V" "C" "C" NA "V.C34"
"1087" 1087 35 "V" "A" "A" NA "V.A35"
"1088" 1088 36 "V" "U" "U" NA "V.U36"
"1089" 1089 37 "V" "C" "C" NA "V.C37"
"1090" 1090 38 "V" "C" "C" NA "V.C38"
"1091" 1091 39 "V" "U" "U" NA "V.U39"
"1092" 1092 40 "V" "G" "G" NA "V.G40"
"1093" 1093 41 "V" "U" "U" NA "V.U41"
"1094" 1094 42 "V" "G" "G" NA "V.G42"
"1095" 1095 43 "V" "A" "A" NA "V.A43"
"1096" 1096 44 "V" "C3" "c" TRUE "V.C3/44"
"1097" 1097 1 "X" "G5" "g" TRUE "X.G5/1"
"1098" 1098 2 "X" "G" "G" NA "X.G2"
"1099" 1099 3 "X" "G" "G" NA "X.G3"
"1100" 1100 4 "X" "A" "A" NA "X.A4"
"1101" 1101 5 "X" "A" "A" NA "X.A5"
"1102" 1102 6 "X" "U" "U" NA "X.U6"
"1103" 1103 7 "X" "C" "C" NA "X.C7"
"1104" 1104 8 "X" "C" "C" NA "X.C8"
"1105" 1105 9 "X" "G" "G" NA "X.G9"
"1106" 1106 10 "X" "A" "A" NA "X.A10"
"1107" 1107 11 "X" "U" "U" NA "X.U11"
"1108" 1108 12 "X" "G" "G" NA "X.G12"
"1109" 1109 13 "X" "G" "G" NA "X.G13"
"1110" 1110 14 "X" "U" "U" NA "X.U14"
"1111" 1111 15 "X" "U" "U" NA "X.U15"
"1112" 1112 16 "X" "G" "G" NA "X.G16"
"1113" 1113 17 "X" "G" "G" NA "X.G17"
"1114" 1114 18 "X" "A" "A" NA "X.A18"
"1115" 1115 19 "X" "U" "U" NA "X.U19"
"1116" 1116 20 "X" "U" "U" NA "X.U20"
"1117" 1117 21 "X" "C" "C" NA "X.C21"
"1118" 1118 22 "X" "C" "C" NA "X.C22"
"1119" 1119 23 "X" "C" "C" NA "X.C23"
"1120" 1120 24 "X" "G" "G" NA "X.G24"
"1121" 1121 25 "X" "U" "U" NA "X.U25"
"1122" 1122 26 "X" "C" "C" NA "X.C26"
"1123" 1123 27 "X" "A" "A" NA "X.A27"
"1124" 1124 28 "X" "C" "C" NA "X.C28"
"1125" 1125 29 "X" "A" "A" NA "X.A29"
"1126" 1126 30 "X" "G" "G" NA "X.G30"
"1127" 1127 31 "X" "A" "A" NA "X.A31"
"1128" 1128 32 "X" "A" "A" NA "X.A32"
"1129" 1129 33 "X" "C" "C" NA "X.C33"
"1130" 1130 34 "X" "C" "C" NA "X.C34"
"1131" 1131 35 "X" "A" "A" NA "X.A35"
"1132" 1132 36 "X" "U" "U" NA "X.U36"
"1133" 1133 37 "X" "C" "C" NA "X.C37"
"1134" 1134 38 "X" "C" "C" NA "X.C38"
"1135" 1135 39 "X" "U" "U" NA "X.U39"
"1136" 1136 40 "X" "G" "G" NA "X.G40"
"1137" 1137 41 "X" "U" "U" NA "X.U41"
"1138" 1138 42 "X" "G" "G" NA "X.G42"
"1139" 1139 43 "X" "A" "A" NA "X.A43"
"1140" 1140 44 "X" "C3" "c" TRUE "X.C3/44"
